<?xml version="1.0" encoding="utf-8"?>
<!-- Generator: Adobe Illustrator 23.0.4, SVG Export Plug-In . SVG Version: 6.00 Build 0)  -->
<svg width="143" height="82" version="1.1" id="Layer_1" xmlns="http://www.w3.org/2000/svg" xmlns:xlink="http://www.w3.org/1999/xlink" x="0px" y="0px"
	 viewBox="0 0 143 82" style="enable-background:new 0 0 143 82;" xml:space="preserve">
<style type="text/css">
	.st0{fill:#F5F3EA;}
</style>
<g>
	<path class="st0" d="M121.6,31.6l-1.4-1.7c-3.1-3.6-4.8-2.8-10-5.9c-0.2-0.1-0.3-0.2-0.4-0.4c-1.9-2.5-4.4-4-7.8-4.4
		c-1.5-0.4-2.8-1.2-4.2-1.9c-1.4-0.7-3-1.1-4.5-1.1c-4.1,0-5.5,1-10.3,1.5c0.6,1.1,1.5,2,2.5,2.8c0.7,0.6,1.6,1,2.5,1.3
		c0.8,0.3,1.7,0.4,2.6,0.2c0.1,0,0.2,0,0.2,0.1c0,0,0,0,0,0.1c0,0.1,0,0.1-0.1,0.2c-0.8,0.3-1.7,0.3-2.6,0.2c1,0.6,2.1,1,3.2,1.4
		c0.3,0.1,0.6,0.2,0.9,0.2l0.4,0.1l0.4,0.1l0.9,0.2l0.9,0.1l0.4,0c0.1,0,0.3,0,0.5,0l0.9,0c0.2,0,0.3,0,0.5,0l0.5,0l0.5,0
		c0.2,0,0.4,0.1,0.4,0.3c0,0,0,0,0,0c0,0.2-0.2,0.4-0.4,0.4l-0.5,0l-0.5,0c-0.2,0-0.3,0-0.5,0l-0.9,0c-0.2,0-0.3,0-0.5,0l-0.5,0
		l-0.9-0.1l-0.9-0.1l-0.5-0.1l-0.5-0.1c-0.3-0.1-0.6-0.1-0.9-0.2c-1.2-0.3-2.4-0.8-3.5-1.4c-0.3-0.1-0.6-0.3-0.8-0.5
		c-0.3-0.2-0.5-0.3-0.8-0.5c-0.3-0.2-2.1-1.5-2.2-1.6c-0.5-0.3-1-0.7-1.4-1.2c-0.4-0.4-1.2-1.4-1.4-1.6c0-0.1-0.1-0.1-0.1-0.2
		c-0.4-0.6-2.6-4.1-4.9-6.7c-1-1.1-5.3,0-7.9,1c-1.7,0.5-3.6,0.9-4.8,1.8c-1.6,1.4-2.3,4.9-6.2,6.9c0,0-0.7,0.5-1,0.7
		c-0.5,0.3-1,0.6-1.5,0.8c-1,0.5-2.1,1-3.1,1.3c-1.1,0.4-2.1,0.7-3.2,0.9c-0.5,0.1-1.1,0.2-1.7,0.3c-0.5,0.1-0.9,0.1-1.4,0.2
		c-0.2,0-0.3-0.1-0.3-0.3c0,0,0,0,0,0c0-0.1,0.1-0.3,0.2-0.3c0.4-0.1,0.9-0.2,1.3-0.3c0.5-0.1,1.1-0.3,1.6-0.5c1-0.3,2-0.7,3-1.2
		c1-0.5,1.9-1,2.8-1.6c0.4-0.2,0.8-0.5,1.1-0.8c-1-0.5-2.5-1.1-3.9-0.9c-1.7,0.1-3.4,0.6-4.4,0.9c-0.6,0.2-1.1,0.4-1.5,0.8
		c-1.1,1-2.3,1.8-3.8,2.1c-1.9,0.2-3.5,0.6-4.9,1.2c-0.4,0.2-0.8,0.5-1.2,0.8c-3,2.7-9.9,3.6-13.7,6.4c-0.2,0.1-0.1,0.4,0.1,0.4
		l99.8,0C121.6,32,121.7,31.8,121.6,31.6z M78.5,18.9c-2-0.8-2.1-2.2-3.4-3c-1.4-0.3-1.1,0.3-2.3,0.3c-0.1,0-0.2-0.1-0.2-0.1
		c0-0.3,0.1-0.6,0.4-0.9c-0.9-0.7-1.7-0.2-2.8-0.5c-0.1,0-0.1-0.2,0-0.2c2-0.5,2.4-1.6,4.4-1.1c1.6,0.3,2.7,2.9,4.2,5.3
		C78.7,18.8,78.6,18.9,78.5,18.9z"/>
	<path class="st0" d="M0.2,53.3C0.1,53.2,0,53.1,0,52.9V38.7c0-0.2,0.1-0.3,0.2-0.4c0.1-0.1,0.3-0.2,0.4-0.2h7.3
		c2.1,0,3.6,0.4,4.6,1.1c1,0.8,1.5,1.9,1.5,3.5c0,0.6-0.2,1.2-0.6,1.7c-0.4,0.5-0.8,0.8-1.2,1.1c0.6,0.2,1.1,0.7,1.5,1.2
		c0.4,0.6,0.6,1.2,0.6,2c0,1.6-0.5,2.8-1.6,3.6c-1.1,0.8-2.6,1.2-4.6,1.2H0.6C0.4,53.5,0.3,53.4,0.2,53.3z M7.4,43.9
		c0.3,0,0.5-0.1,0.7-0.3c0.2-0.2,0.2-0.4,0.2-0.7c0-0.3-0.1-0.5-0.2-0.7c-0.2-0.2-0.4-0.3-0.7-0.3H5.5v2H7.4z M7.6,49.7
		c0.3,0,0.6-0.1,0.8-0.3c0.2-0.2,0.3-0.5,0.3-0.7c0-0.3-0.1-0.5-0.3-0.7c-0.2-0.2-0.4-0.3-0.7-0.3H5.5v2.2H7.6z"/>
	<path class="st0" d="M16,53.3c-0.1-0.1-0.2-0.3-0.2-0.4V38.7c0-0.2,0.1-0.3,0.2-0.4c0.1-0.1,0.3-0.2,0.4-0.2h4.4
		c0.2,0,0.3,0.1,0.4,0.2c0.1,0.1,0.2,0.3,0.2,0.4V49h6.1c0.2,0,0.3,0.1,0.4,0.2c0.1,0.1,0.2,0.3,0.2,0.4v3.3c0,0.2-0.1,0.3-0.2,0.4
		c-0.1,0.1-0.3,0.2-0.4,0.2H16.4C16.3,53.5,16.1,53.4,16,53.3z"/>
	<path class="st0" d="M28.9,53.4c-0.1-0.1-0.1-0.2-0.1-0.3c0-0.1,0-0.1,0-0.2l4.9-14.1c0.1-0.2,0.2-0.4,0.3-0.5
		c0.2-0.1,0.4-0.2,0.7-0.2h4.8c0.3,0,0.5,0.1,0.7,0.2c0.2,0.1,0.3,0.3,0.3,0.5l4.9,14.1c0,0,0,0.1,0,0.2c0,0.1,0,0.2-0.1,0.3
		c-0.1,0.1-0.2,0.1-0.3,0.1h-4.1c-0.4,0-0.7-0.2-0.9-0.6l-0.5-1.5h-4.7l-0.5,1.5c-0.1,0.4-0.4,0.6-0.9,0.6h-4.1
		C29.1,53.5,29,53.4,28.9,53.4z M38.3,47.2l-1.3-4.1l-1.2,4.1H38.3z"/>
	<path class="st0" d="M47.7,52.3c-1.3-1-2-2.5-2.1-4.5c0-0.4,0-1,0-1.9c0-0.9,0-1.6,0-2c0.1-2,0.8-3.5,2.1-4.5
		c1.3-1,3.1-1.5,5.2-1.5c1.3,0,2.5,0.2,3.6,0.6c1.1,0.4,2,1,2.7,1.9c0.7,0.8,1.1,1.9,1.1,3.2c0,0.1,0,0.2-0.1,0.3
		c-0.1,0.1-0.2,0.1-0.3,0.1h-4.5c-0.2,0-0.4,0-0.5-0.1c-0.1-0.1-0.2-0.3-0.3-0.5c-0.2-0.4-0.4-0.7-0.6-0.9c-0.3-0.2-0.6-0.3-1-0.3
		c-0.5,0-0.9,0.1-1.2,0.4c-0.3,0.3-0.4,0.7-0.4,1.4c0,0.4,0,1,0,1.8c0,0.8,0,1.4,0,1.9c0,0.6,0.2,1.1,0.4,1.4
		c0.3,0.3,0.7,0.4,1.2,0.4c0.8,0,1.4-0.4,1.7-1.2c0.1-0.2,0.2-0.4,0.3-0.5c0.1-0.1,0.3-0.1,0.5-0.1h4.5c0.1,0,0.2,0,0.3,0.1
		c0.1,0.1,0.1,0.2,0.1,0.3c0,1.3-0.4,2.3-1.1,3.2c-0.7,0.8-1.6,1.5-2.7,1.9c-1.1,0.4-2.3,0.6-3.6,0.6C50.8,53.7,49,53.2,47.7,52.3z"
		/>
	<path class="st0" d="M62,53.3c-0.1-0.1-0.2-0.3-0.2-0.4V38.7c0-0.2,0.1-0.3,0.2-0.4c0.1-0.1,0.3-0.2,0.4-0.2h4.2
		c0.2,0,0.3,0.1,0.4,0.2c0.1,0.1,0.2,0.3,0.2,0.4V43l2.5-4.5c0.2-0.3,0.5-0.5,0.9-0.5h4.9c0.1,0,0.2,0,0.3,0.1
		c0.1,0.1,0.1,0.2,0.1,0.3c0,0.1,0,0.2-0.1,0.2l-4,6.7l4.3,7.3c0,0.1,0.1,0.1,0.1,0.2c0,0.1,0,0.2-0.1,0.3c-0.1,0.1-0.2,0.1-0.3,0.1
		h-5c-0.3,0-0.4-0.1-0.6-0.2c-0.1-0.1-0.3-0.2-0.3-0.3l-2.7-4.8v4.7c0,0.2-0.1,0.3-0.2,0.4c-0.1,0.1-0.3,0.2-0.4,0.2h-4.2
		C62.2,53.5,62.1,53.4,62,53.3z"/>
	<path class="st0" d="M81.8,53.3c-0.1-0.1-0.2-0.3-0.2-0.4V38.7c0-0.2,0.1-0.3,0.2-0.4c0.1-0.1,0.3-0.2,0.4-0.2h7.3
		c2.1,0,3.6,0.4,4.6,1.1c1,0.8,1.5,1.9,1.5,3.5c0,0.6-0.2,1.2-0.6,1.7c-0.4,0.5-0.8,0.8-1.2,1.1c0.6,0.2,1.1,0.7,1.5,1.2
		c0.4,0.6,0.6,1.2,0.6,2c0,1.6-0.5,2.8-1.6,3.6c-1.1,0.8-2.6,1.2-4.6,1.2h-7.5C82.1,53.5,81.9,53.4,81.8,53.3z M89,43.9
		c0.3,0,0.5-0.1,0.7-0.3c0.2-0.2,0.2-0.4,0.2-0.7c0-0.3-0.1-0.5-0.2-0.7c-0.2-0.2-0.4-0.3-0.7-0.3h-1.9v2H89z M89.2,49.7
		c0.3,0,0.6-0.1,0.8-0.3c0.2-0.2,0.3-0.5,0.3-0.7c0-0.3-0.1-0.5-0.3-0.7c-0.2-0.2-0.4-0.3-0.7-0.3h-2.1v2.2H89.2z"/>
	<path class="st0" d="M97.7,53.3c-0.1-0.1-0.2-0.3-0.2-0.4V38.7c0-0.2,0.1-0.3,0.2-0.4c0.1-0.1,0.3-0.2,0.4-0.2h11.3
		c0.2,0,0.3,0.1,0.4,0.2c0.1,0.1,0.2,0.3,0.2,0.4v3.1c0,0.2-0.1,0.3-0.2,0.4c-0.1,0.1-0.3,0.2-0.4,0.2h-6.6v1.4h6.1
		c0.2,0,0.3,0.1,0.4,0.2c0.1,0.1,0.2,0.3,0.2,0.4v2.9c0,0.2-0.1,0.3-0.2,0.4c-0.1,0.1-0.3,0.2-0.4,0.2h-6.1v1.4h6.8
		c0.2,0,0.3,0.1,0.4,0.2c0.1,0.1,0.2,0.3,0.2,0.4v3.1c0,0.2-0.1,0.3-0.2,0.4c-0.1,0.1-0.3,0.2-0.4,0.2H98.1
		C97.9,53.5,97.8,53.4,97.7,53.3z"/>
	<path class="st0" d="M111.2,53.4c-0.1-0.1-0.1-0.2-0.1-0.3c0-0.1,0-0.1,0-0.2l4.9-14.1c0.1-0.2,0.2-0.4,0.3-0.5
		c0.2-0.1,0.4-0.2,0.7-0.2h4.8c0.3,0,0.5,0.1,0.7,0.2c0.2,0.1,0.3,0.3,0.3,0.5l4.9,14.1c0,0,0,0.1,0,0.2c0,0.1,0,0.2-0.1,0.3
		c-0.1,0.1-0.2,0.1-0.3,0.1h-4.1c-0.4,0-0.7-0.2-0.9-0.6l-0.5-1.5H117l-0.5,1.5c-0.1,0.4-0.4,0.6-0.9,0.6h-4.1
		C111.4,53.5,111.3,53.4,111.2,53.4z M120.6,47.2l-1.3-4.1l-1.2,4.1H120.6z"/>
	<path class="st0" d="M128.9,53.3c-0.1-0.1-0.2-0.3-0.2-0.4V38.7c0-0.2,0.1-0.3,0.2-0.4c0.1-0.1,0.3-0.2,0.4-0.2h6.5
		c2.1,0,3.8,0.5,5,1.4c1.2,0.9,1.8,2.3,1.8,3.9c0,1-0.2,1.8-0.6,2.5c-0.4,0.7-1,1.3-1.7,1.8l2.7,5c0,0.1,0.1,0.2,0.1,0.2
		c0,0.1,0,0.2-0.1,0.3c-0.1,0.1-0.2,0.1-0.3,0.1H138c-0.3,0-0.5-0.1-0.6-0.2c-0.2-0.1-0.3-0.3-0.3-0.4l-1.9-4.2h-0.9v4.2
		c0,0.2-0.1,0.3-0.2,0.4c-0.1,0.1-0.3,0.2-0.4,0.2h-4.3C129.2,53.5,129,53.4,128.9,53.3z M135.9,44.5c0.3,0,0.6-0.1,0.7-0.3
		c0.2-0.2,0.3-0.5,0.3-0.8c0-0.3-0.1-0.6-0.3-0.8c-0.2-0.2-0.4-0.4-0.8-0.4h-1.6v2.3H135.9z"/>
	<path class="st0" d="M36.1,65.1H0.4c-0.2,0-0.4-0.2-0.4-0.4l0,0c0-0.2,0.2-0.4,0.4-0.4h35.7c0.2,0,0.4,0.2,0.4,0.4l0,0
		C36.6,64.9,36.4,65.1,36.1,65.1z"/>
	<path class="st0" d="M142.6,65.1h-35.7c-0.2,0-0.4-0.2-0.4-0.4l0,0c0-0.2,0.2-0.4,0.4-0.4h35.7c0.2,0,0.4,0.2,0.4,0.4l0,0
		C143,64.9,142.8,65.1,142.6,65.1z"/>
	<g>
		<path class="st0" d="M43.8,70.8c-0.1-0.1-0.1-0.2-0.1-0.3V58.8c0-0.1,0-0.2,0.1-0.3c0.1-0.1,0.2-0.1,0.3-0.1h1.7
			c0.1,0,0.2,0,0.3,0.1c0.1,0.1,0.1,0.2,0.1,0.3v10.1h5.7c0.1,0,0.2,0,0.3,0.1c0.1,0.1,0.1,0.2,0.1,0.3v1.3c0,0.1,0,0.2-0.1,0.3
			c-0.1,0.1-0.2,0.1-0.3,0.1h-7.8C44,71,43.9,70.9,43.8,70.8z"/>
		<path class="st0" d="M54.8,69.9c-0.9-0.8-1.4-2.1-1.4-3.7c0-0.3,0-0.9,0-1.5c0-0.7,0-1.2,0-1.6c0-1.6,0.5-2.8,1.5-3.7
			c0.9-0.9,2.2-1.3,3.8-1.3c1.6,0,2.9,0.4,3.8,1.3c0.9,0.9,1.4,2.1,1.5,3.7c0,0.7,0,1.2,0,1.6c0,0.3,0,0.8,0,1.5
			c-0.1,1.6-0.5,2.9-1.5,3.7c-0.9,0.8-2.2,1.2-3.8,1.2C57,71.1,55.7,70.7,54.8,69.9z M60.6,68.3c0.5-0.5,0.7-1.2,0.8-2.2
			c0-0.7,0-1.2,0-1.5c0-0.3,0-0.8,0-1.5c0-1-0.3-1.7-0.8-2.2c-0.5-0.5-1.1-0.7-1.9-0.7c-0.8,0-1.4,0.2-1.9,0.7
			c-0.5,0.5-0.7,1.2-0.8,2.2c0,0.3,0,0.8,0,1.5c0,0.6,0,1.1,0,1.5c0,1,0.3,1.7,0.8,2.2c0.5,0.5,1.1,0.7,1.9,0.7
			C59.4,69.1,60.1,68.8,60.6,68.3z"/>
		<path class="st0" d="M66,70.8c-0.1-0.1-0.1-0.2-0.1-0.3V58.8c0-0.1,0-0.2,0.1-0.3c0.1-0.1,0.2-0.1,0.3-0.1h4.4
			c3.5,0,5.3,1.6,5.4,4.9c0,0.7,0,1.2,0,1.4c0,0.2,0,0.7,0,1.4c0,1.7-0.5,2.9-1.4,3.7c-0.9,0.8-2.2,1.2-4,1.2h-4.5
			C66.2,71,66.1,70.9,66,70.8z M70.7,68.9c1,0,1.7-0.2,2.2-0.7c0.4-0.5,0.7-1.2,0.7-2.2c0-0.7,0-1.2,0-1.4c0-0.2,0-0.6,0-1.3
			c0-1-0.3-1.7-0.7-2.2c-0.5-0.5-1.2-0.7-2.2-0.7h-2.2v8.5H70.7z"/>
		<path class="st0" d="M79.2,69.9c-0.9-0.9-1.4-2-1.5-3.6c0-0.3,0-0.9,0-1.7c0-0.8,0-1.3,0-1.7c0.1-1.5,0.6-2.7,1.5-3.5
			c0.9-0.8,2.2-1.3,3.8-1.3c1.1,0,2.1,0.2,2.9,0.6c0.8,0.4,1.4,0.8,1.8,1.4c0.4,0.6,0.6,1.1,0.6,1.7v0c0,0.1,0,0.2-0.1,0.2
			c-0.1,0.1-0.2,0.1-0.3,0.1h-1.9c-0.1,0-0.2,0-0.3-0.1c-0.1,0-0.1-0.1-0.2-0.2c-0.2-0.4-0.5-0.8-0.9-1.1c-0.4-0.3-1-0.5-1.8-0.5
			c-0.8,0-1.5,0.2-2,0.7c-0.5,0.5-0.7,1.2-0.8,2.1c0,0.3,0,0.9,0,1.6c0,0.7,0,1.2,0,1.6c0.1,1.9,1,2.9,2.8,2.9
			c0.9,0,1.5-0.2,2.1-0.7c0.5-0.5,0.8-1.2,0.8-2.1v-0.6h-2.2c-0.1,0-0.2,0-0.3-0.1c-0.1-0.1-0.1-0.2-0.1-0.3v-1c0-0.1,0-0.2,0.1-0.3
			c0.1-0.1,0.2-0.1,0.3-0.1H88c0.1,0,0.2,0,0.3,0.1c0.1,0.1,0.1,0.2,0.1,0.3v1.9c0,1-0.2,1.9-0.7,2.6c-0.4,0.7-1.1,1.3-1.9,1.7
			c-0.8,0.4-1.8,0.6-2.9,0.6C81.4,71.1,80.1,70.7,79.2,69.9z"/>
		<path class="st0" d="M90.5,70.8c-0.1-0.1-0.1-0.2-0.1-0.3V58.8c0-0.1,0-0.2,0.1-0.3c0.1-0.1,0.2-0.1,0.3-0.1h7.9
			c0.1,0,0.2,0,0.3,0.1c0.1,0.1,0.1,0.2,0.1,0.3V60c0,0.1,0,0.2-0.1,0.3c-0.1,0.1-0.2,0.1-0.3,0.1h-5.9v3.2h5.5c0.1,0,0.2,0,0.3,0.1
			c0.1,0.1,0.1,0.2,0.1,0.3v1.1c0,0.1,0,0.2-0.1,0.3c-0.1,0.1-0.2,0.1-0.3,0.1h-5.5v3.3h6.1c0.1,0,0.2,0,0.3,0.1
			c0.1,0.1,0.1,0.2,0.1,0.3v1.2c0,0.1,0,0.2-0.1,0.3C99.1,70.9,99,71,98.9,71h-8.1C90.7,71,90.6,70.9,90.5,70.8z"/>
	</g>
</g>
</svg>
