<?xml version="1.0" encoding="UTF-8"?>
<svg width="52px" height="67px" viewBox="0 0 52 67" version="1.1" xmlns="http://www.w3.org/2000/svg" xmlns:xlink="http://www.w3.org/1999/xlink">
    <!-- Generator: Sketch 48 (47235) - http://www.bohemiancoding.com/sketch -->
    <title>Pin</title>
    <desc>Created with Sketch.</desc>
    <defs>
        <filter x="-1.8%" y="-2.5%" width="103.5%" height="106.9%" filterUnits="objectBoundingBox" id="filter-1">
            <feOffset dx="0" dy="4" in="SourceAlpha" result="shadowOffsetOuter1"></feOffset>
            <feGaussianBlur stdDeviation="4" in="shadowOffsetOuter1" result="shadowBlurOuter1"></feGaussianBlur>
            <feColorMatrix values="0 0 0 0 0   0 0 0 0 0   0 0 0 0 0  0 0 0 0.18 0" type="matrix" in="shadowBlurOuter1" result="shadowMatrixOuter1"></feColorMatrix>
            <feMerge>
                <feMergeNode in="shadowMatrixOuter1"></feMergeNode>
                <feMergeNode in="SourceGraphic"></feMergeNode>
            </feMerge>
        </filter>
        <polygon id="path-2" points="1.21365915e-21 0.091502069 1.21365915e-21 52 35.9999821 52 35.9999821 0.091502069"></polygon>
    </defs>
    <g id="Black-Bear-Desktop" stroke="none" stroke-width="1" fill="none" fill-rule="evenodd" transform="translate(-984.000000, -2721.000000)">
        <g id="Location-Section" transform="translate(120.000000, 2592.000000)">
            <g id="Map" filter="url(#filter-1)" transform="translate(410.000000, 0.000000)">
                <g id="Pin" transform="translate(462.000000, 133.000000)">
                    <g id="Group-3">
                        <mask id="mask-3" fill="white">
                            <use xlink:href="#path-2"></use>
                        </mask>
                        <g id="Clip-2"></g>
                        <path d="M35.9999821,18.1121917 C35.9999821,28.0639159 17.9999821,52.0000538 17.9999821,52.0000538 C17.9999821,52.0000538 17.9623701,51.9498469 17.8925194,51.8548124 C16.3987881,49.8501228 -1.79104478e-05,27.6102607 -1.79104478e-05,18.1121917 C-1.79104478e-05,8.19632966 7.99878806,0.150674483 17.8925194,0.0932951724 C17.9283403,0.091502069 17.9641612,0.091502069 17.9999821,0.091502069 C27.9402806,0.091502069 35.9999821,8.16046759 35.9999821,18.1121917" id="Fill-1" fill="#104D6A" mask="url(#mask-3)"></path>
                    </g>
                    <path d="M25,17.5 C25,21.0898233 22.0898233,24 18.5,24 C14.9101767,24 12,21.0898233 12,17.5 C12,13.9101767 14.9101767,11 18.5,11 C22.0898233,11 25,13.9101767 25,17.5" id="Fill-6" fill="#FBFCF6"></path>
                </g>
            </g>
        </g>
    </g>
</svg>