<?xml version="1.0" encoding="UTF-8" standalone="no"?>
<svg width="25px" height="25px" viewBox="0 0 25 25" version="1.1" xmlns="http://www.w3.org/2000/svg" xmlns:xlink="http://www.w3.org/1999/xlink">
    <!-- Generator: Sketch 43.2 (39069) - http://www.bohemiancoding.com/sketch -->
    <title>Close Button</title>
    <desc>Created with Sketch.</desc>
    <defs></defs>
    <g id="Artboards" stroke="none" stroke-width="1" fill="none" fill-rule="evenodd">
        <g id="Screen-2" transform="translate(-535.000000, -26.000000)">
            <g id="Topbar">
                <g id="Close-Button" transform="translate(535.000000, 26.000000)">
                    <g id="Symbol">
                        <rect id="box" fill="#FFFFFF" x="0" y="0" width="25" height="25"></rect>
                        <g id="X" transform="translate(8.000000, 8.000000)" stroke="#3D4756" stroke-width="1.5" stroke-linecap="square">
                            <path d="M9.8,0.2 L0.2,9.8" id="Line"></path>
                            <path d="M0.2,0.2 L9.8,9.8" id="Line"></path>
                        </g>
                    </g>
                </g>
            </g>
        </g>
    </g>
</svg>